<?xml version="1.0" encoding="UTF-8" standalone="no"?>
<!-- Created with Inkscape (http://www.inkscape.org/) -->

<svg
   xmlns:dc="http://purl.org/dc/elements/1.1/"
   xmlns:cc="http://creativecommons.org/ns#"
   xmlns:rdf="http://www.w3.org/1999/02/22-rdf-syntax-ns#"
   xmlns:svg="http://www.w3.org/2000/svg"
   xmlns="http://www.w3.org/2000/svg"
   xmlns:sodipodi="http://sodipodi.sourceforge.net/DTD/sodipodi-0.dtd"
   xmlns:inkscape="http://www.inkscape.org/namespaces/inkscape"
   width="297mm"
   height="210mm"
   viewBox="0 0 297 210"
   version="1.1"
   id="svg8"
   inkscape:version="0.92.4 (5da689c313, 2019-01-14)"
   sodipodi:docname="logo.svg"
   inkscape:export-filename="/home/mhi/Dokumente/logo/logo01.svg.png"
   inkscape:export-xdpi="96"
   inkscape:export-ydpi="96">
  <defs
     id="defs2" />
  <sodipodi:namedview
     id="base"
     pagecolor="#ffffff"
     bordercolor="#666666"
     borderopacity="1.0"
     inkscape:pageopacity="0.0"
     inkscape:pageshadow="2"
     inkscape:zoom="0.5"
     inkscape:cx="559.36209"
     inkscape:cy="224.20154"
     inkscape:document-units="mm"
     inkscape:current-layer="layer1"
     showgrid="false"
     inkscape:window-width="1366"
     inkscape:window-height="671"
     inkscape:window-x="0"
     inkscape:window-y="27"
     inkscape:window-maximized="1" />
  <metadata
     id="metadata5">
    <rdf:RDF>
      <cc:Work
         rdf:about="">
        <dc:format>image/svg+xml</dc:format>
        <dc:type
           rdf:resource="http://purl.org/dc/dcmitype/StillImage" />
        <dc:title></dc:title>
      </cc:Work>
    </rdf:RDF>
  </metadata>
  <g
     inkscape:label="Ebene 1"
     inkscape:groupmode="layer"
     id="layer1"
     transform="translate(0,-87)">
    <ellipse
       style="fill:#ececec;fill-opacity:1;stroke:#1a9a00;stroke-width:0.10357003;stroke-miterlimit:4;stroke-dasharray:0.10357003, 0.82856023;stroke-dashoffset:0;stroke-opacity:0.64615389"
       id="path834"
       cx="149.81683"
       cy="200.66986"
       rx="99.459595"
       ry="24.694979" />
    <ellipse
       style="fill:#ffffff;fill-opacity:1;stroke:#1a9a00;stroke-width:0.04460678;stroke-miterlimit:4;stroke-dasharray:0.0446068, 0.35685498;stroke-dashoffset:0;stroke-opacity:0.64615389"
       id="path834-7"
       cx="150.85489"
       cy="211.14093"
       rx="42.836529"
       ry="10.635938" />
    <path
       style="fill:#66ff41;fill-opacity:1;stroke:#1a9a00;stroke-width:0.10357003;stroke-miterlimit:4;stroke-dasharray:0.10357003, 0.82856025;stroke-dashoffset:0;stroke-opacity:0.64615389"
       id="path834-2"
       sodipodi:type="arc"
       sodipodi:cx="148.85851"
       sodipodi:cy="196.64561"
       sodipodi:rx="99.459595"
       sodipodi:ry="24.694979"
       sodipodi:start="5.4977871"
       sodipodi:end="0.78539816"
       d="m 219.18706,179.18363 a 99.459595,24.694979 0 0 1 29.13104,17.46198 99.459595,24.694979 0 0 1 -29.13104,17.46199 l -70.32855,-17.46199 z" />
    <path
       style="fill:#125cb5;fill-opacity:1;stroke:#1a9a00;stroke-width:0.10357003;stroke-miterlimit:4;stroke-dasharray:0.10357003, 0.82856026;stroke-dashoffset:0;stroke-opacity:0.64615389"
       id="path834-2-4"
       sodipodi:type="arc"
       sodipodi:cx="148.85089"
       sodipodi:cy="196.64532"
       sodipodi:rx="99.459595"
       sodipodi:ry="24.694979"
       sodipodi:start="0.78539816"
       sodipodi:end="2.3561945"
       d="m 219.17945,214.10731 a 99.459595,24.694979 0 0 1 -70.32856,7.23299 99.459595,24.694979 0 0 1 -70.328553,-7.23299 l 70.328553,-17.46199 z" />
    <path
       style="fill:#ffcc00;fill-opacity:1;stroke:#1a9a00;stroke-width:0.10357003;stroke-miterlimit:4;stroke-dasharray:0.10357003, 0.82856027;stroke-dashoffset:0;stroke-opacity:0.64615389"
       id="path834-2-4-1"
       sodipodi:type="arc"
       sodipodi:cx="148.83958"
       sodipodi:cy="196.64714"
       sodipodi:rx="99.459595"
       sodipodi:ry="24.694979"
       sodipodi:start="2.3561945"
       sodipodi:end="3.9269908"
       d="m 78.51103,214.10913 a 99.459595,24.694979 0 0 1 -1e-6,-34.92398 l 70.328551,17.46199 z" />
    <path
       style="fill:#ec5500;fill-opacity:1;stroke:#1a9a00;stroke-width:0.10357003;stroke-miterlimit:4;stroke-dasharray:0.10357003, 0.82856028;stroke-dashoffset:0;stroke-opacity:0.64615389"
       id="path834-2-4-1-6"
       sodipodi:type="arc"
       sodipodi:cx="148.84589"
       sodipodi:cy="196.64629"
       sodipodi:rx="99.459595"
       sodipodi:ry="24.694979"
       sodipodi:start="3.9269908"
       sodipodi:end="5.4977871"
       d="m 78.517331,179.1843 a 99.459595,24.694979 0 0 1 140.657109,0 l -70.32855,17.46199 z" />
    <ellipse
       style="fill:#ffffff;fill-opacity:1;stroke:#1a9a00;stroke-width:0.05166728;stroke-miterlimit:4;stroke-dasharray:0.05166731, 0.41333901;stroke-dashoffset:0;stroke-opacity:0.64615389"
       id="path834-5"
       cx="148.84589"
       cy="195.19795"
       rx="49.616829"
       ry="12.319435" />
    <text
       xml:space="preserve"
       style="font-style:normal;font-variant:normal;font-weight:normal;font-stretch:normal;font-size:165.94857788px;line-height:1.25;font-family:sans-serif;-inkscape-font-specification:'sans-serif, Normal';font-variant-ligatures:normal;font-variant-caps:normal;font-variant-numeric:normal;font-feature-settings:normal;text-align:start;letter-spacing:0px;word-spacing:0px;writing-mode:lr-tb;text-anchor:start;fill:#808080;fill-opacity:1;stroke:none;stroke-width:24.89229965;"
       x="104.16735"
       y="195.67091"
       id="text4653"><tspan
         sodipodi:role="line"
         id="tspan4651"
         x="104.16735"
         y="195.67091"
         style="fill:#808080;stroke-width:24.89229965;">⚕</tspan></text>
  </g>
  <g
     inkscape:groupmode="layer"
     id="layer2"
     inkscape:label="Ebene 2" />
</svg>
