[
  {
    "title": "Familien",
    "description": "Unterstützung bei Erziehungsfragen, Elternarbeit und Familientherapie.",
    "image": "images/features/Familien01.svg",
    "url": "services/famtherapie",
    "u_title": "hier weiter lesen oder mehr unter dem Stichpunkt Methoden",
    "u_text": "Familientherapie"
  },
  {
    "title": "Institutionen",
    "description": "Familien-Gerichte können mich als Anwalt des Kindes oder Vormund bestellen .",
    "image": "images/features/Institutionen01.svg",
    "url": "institut/verfahrensbeistand",
    "u_title": "hier weiter lesen oder mehr unter dem Stichpunkt Methoden",
    "u_text": "Verfahrensbeistand"
  },
  
  {
    "title": "Psychotherapie",
    "description": "Für Einzelne oder Paare biete ich Choaching und Therapie.",
    "image": "images/features/Psycho01.svg",
    "url": "services/paartherapie",
    "u_title": "hier weiter lesen oder mehr unter dem Stichpunkt Methoden",
    "u_text": "Psychotherapie"
  },
  {
    "title": "Teams",
    "description": "Jedes Team braucht den Blick von außen - als Fall- oder Teamsupervision.",
    "image": "images/features/Team01.svg",
    "url": "",
    "u_title": "",
    "u_text": ""
  }
]
